{
  "version": "1.1.1",
  "windows": {
    "main": {
      "main": true,
      "url": "app://editor/index.html",
      "windowType": "dockable",
      "x": 2,
      "y": 60,
      "width": 1920,
      "height": 1055,
      "layout": {
        "type": "dock-h",
        "children": [
          {
            "width": 442,
            "height": 968,
            "type": "dock-v",
            "children": [
              {
                "width": 442,
                "height": 572.984375,
                "type": "panel",
                "active": 0,
                "children": [
                  "hierarchy"
                ]
              },
              {
                "width": 442,
                "height": 392,
                "type": "panel",
                "active": 0,
                "children": [
                  "assets"
                ]
              }
            ]
          },
          {
            "width": 1021,
            "height": 968,
            "type": "dock-v",
            "children": [
              {
                "width": 1021,
                "height": 674,
                "type": "panel",
                "active": 0,
                "children": [
                  "scene"
                ]
              },
              {
                "width": 1021,
                "height": 291,
                "type": "panel",
                "active": 0,
                "children": [
                  "console",
                  "timeline",
                  "game-window"
                ]
              }
            ]
          },
          {
            "width": 451,
            "height": 968,
            "type": "panel",
            "active": 0,
            "children": [
              "inspector",
              "cocos-services"
            ]
          }
        ]
      },
      "panels": [
        "hierarchy",
        "assets",
        "scene",
        "console",
        "timeline",
        "game-window",
        "inspector",
        "cocos-services"
      ]
    }
  },
  "panels": {
    "builder": {
      "x": 151,
      "y": 25,
      "width": 976,
      "height": 728
    },
    "preferences": {
      "x": 2206,
      "y": 184,
      "width": 584,
      "height": 554
    },
    "project-settings": {
      "x": 891,
      "y": 237,
      "width": 584,
      "height": 554
    }
  },
  "panelLabelWidth": {}
}
