{
  "last-edit": "5e651a0c-d437-4438-b7ca-ccdc79a143db",
  "recent-items": [
    "a87cc147-01b2-43f8-8e42-a7ca90b0c757",
    "fe1417b6-fe6b-46a4-ae7c-9fd331f33a2a",
    "9c6ad468-75e3-40ef-9bbf-96d627726f0b",
    "5e651a0c-d437-4438-b7ca-ccdc79a143db"
  ]
}
