{
  "__type__": "cc.SpriteFrame",
  "content": {
    "name": "MUSIC",
    "texture": "7c29355a-d7ca-4268-a3f6-c1ed2714fed0",
    "atlas": "",
    "rect": [
      0,
      0,
      237,
      237
    ],
    "offset": [
      0,
      0
    ],
    "originalSize": [
      237,
      237
    ],
    "capInsets": [
      0,
      0,
      0,
      0
    ]
  }
}