{
  "__type__": "cc.SpriteFrame",
  "content": {
    "name": "3_C",
    "texture": "1df84497-6d2c-4039-89be-88c0d2410f2c",
    "atlas": "",
    "rect": [
      1,
      1,
      268,
      392
    ],
    "offset": [
      0,
      0
    ],
    "originalSize": [
      270,
      394
    ],
    "capInsets": [
      0,
      0,
      0,
      0
    ]
  }
}