{
  "__type__": "cc.SpriteFrame",
  "content": {
    "name": "A_H",
    "texture": "cb372421-3c6f-4e9a-986c-b3d8098cb440",
    "atlas": "",
    "rect": [
      1,
      1,
      268,
      392
    ],
    "offset": [
      0,
      0
    ],
    "originalSize": [
      270,
      394
    ],
    "capInsets": [
      0,
      0,
      0,
      0
    ]
  }
}