{
  "__type__": "cc.SpriteFrame",
  "content": {
    "name": "1858-5",
    "texture": "2c885dd3-a1f5-4167-bbb1-f9dd3371430f",
    "atlas": "",
    "rect": [
      0,
      0,
      223,
      248
    ],
    "offset": [
      0,
      0
    ],
    "originalSize": [
      223,
      248
    ],
    "capInsets": [
      0,
      0,
      0,
      0
    ]
  }
}