{
  "__type__": "cc.SpriteFrame",
  "content": {
    "name": "K_C",
    "texture": "a202df8d-edc1-4a79-87a5-36457e8aeb25",
    "atlas": "",
    "rect": [
      1,
      1,
      268,
      392
    ],
    "offset": [
      0,
      0
    ],
    "originalSize": [
      270,
      394
    ],
    "capInsets": [
      0,
      0,
      0,
      0
    ]
  }
}