{
  "__type__": "cc.SpriteFrame",
  "content": {
    "name": "10_D",
    "texture": "d7734a3c-d2b2-4b3e-ab01-7bae9f910c03",
    "atlas": "",
    "rect": [
      1,
      1,
      268,
      392
    ],
    "offset": [
      0,
      0
    ],
    "originalSize": [
      270,
      394
    ],
    "capInsets": [
      0,
      0,
      0,
      0
    ]
  }
}