{
  "__type__": "cc.SpriteFrame",
  "content": {
    "name": "1858-7",
    "texture": "c74b489a-ba4f-4aa8-93b8-5226426afb44",
    "atlas": "",
    "rect": [
      0,
      0,
      158,
      79
    ],
    "offset": [
      0,
      0
    ],
    "originalSize": [
      158,
      79
    ],
    "capInsets": [
      0,
      0,
      0,
      0
    ]
  }
}