{
  "__type__": "cc.SpriteFrame",
  "content": {
    "name": "BLACKCARD",
    "texture": "c6b5b0f0-1b68-48c7-9ec6-645d99f17065",
    "atlas": "",
    "rect": [
      1,
      1,
      268,
      392
    ],
    "offset": [
      0,
      0
    ],
    "originalSize": [
      270,
      394
    ],
    "capInsets": [
      0,
      0,
      0,
      0
    ]
  }
}