{
  "__type__": "cc.SpriteFrame",
  "content": {
    "name": "HINTLG",
    "texture": "dcf8b65c-ceb2-4c02-a50a-868f7d4e0b56",
    "atlas": "",
    "rect": [
      0,
      0,
      237,
      237
    ],
    "offset": [
      0,
      0
    ],
    "originalSize": [
      237,
      237
    ],
    "capInsets": [
      0,
      0,
      0,
      0
    ]
  }
}