{
  "__type__": "cc.SpriteFrame",
  "content": {
    "name": "4_D",
    "texture": "06fc744c-da51-4eb0-9d43-3bb27eed686e",
    "atlas": "",
    "rect": [
      1,
      1,
      268,
      392
    ],
    "offset": [
      0,
      0
    ],
    "originalSize": [
      270,
      394
    ],
    "capInsets": [
      0,
      0,
      0,
      0
    ]
  }
}