{
  "__type__": "cc.SpriteFrame",
  "content": {
    "name": "1858-2",
    "texture": "edaa2803-3b34-43d9-acde-c21880a55865",
    "atlas": "",
    "rect": [
      0,
      0,
      135,
      154
    ],
    "offset": [
      0,
      0
    ],
    "originalSize": [
      135,
      154
    ],
    "capInsets": [
      0,
      0,
      0,
      0
    ]
  }
}