{
  "__type__": "cc.SpriteFrame",
  "content": {
    "name": "PopupBg",
    "texture": "7ded0c55-b0e0-4076-8f85-643177c1a6c3",
    "atlas": "",
    "rect": [
      1,
      1,
      1971,
      858
    ],
    "offset": [
      0,
      0
    ],
    "originalSize": [
      1973,
      860
    ],
    "capInsets": [
      0,
      0,
      0,
      0
    ]
  }
}