{
  "__type__": "cc.SpriteFrame",
  "content": {
    "name": "J_C",
    "texture": "5994e27a-6951-4ab7-88b2-cccbe42a434f",
    "atlas": "",
    "rect": [
      1,
      1,
      268,
      392
    ],
    "offset": [
      0,
      0
    ],
    "originalSize": [
      270,
      394
    ],
    "capInsets": [
      0,
      0,
      0,
      0
    ]
  }
}