{
  "__type__": "cc.SpriteFrame",
  "content": {
    "name": "2",
    "texture": "4f232857-a303-407e-b265-40b26aec8c7b",
    "atlas": "",
    "rect": [
      0,
      0,
      464,
      298
    ],
    "offset": [
      0,
      0
    ],
    "originalSize": [
      464,
      298
    ],
    "capInsets": [
      0,
      0,
      0,
      0
    ]
  }
}