{
  "__type__": "cc.SpriteFrame",
  "content": {
    "name": "K_S",
    "texture": "f07b5341-91fb-4d3d-a48b-6b6c4df0923b",
    "atlas": "",
    "rect": [
      1,
      1,
      268,
      392
    ],
    "offset": [
      0,
      0
    ],
    "originalSize": [
      270,
      394
    ],
    "capInsets": [
      0,
      0,
      0,
      0
    ]
  }
}