{
  "__type__": "cc.SpriteFrame",
  "content": {
    "name": "10_H",
    "texture": "37624265-9a6e-452f-966b-5f0783a20c4e",
    "atlas": "",
    "rect": [
      1,
      1,
      268,
      392
    ],
    "offset": [
      0,
      0
    ],
    "originalSize": [
      270,
      394
    ],
    "capInsets": [
      0,
      0,
      0,
      0
    ]
  }
}