{
  "__type__": "cc.SpriteFrame",
  "content": {
    "name": "K_D",
    "texture": "e7a987f0-7d42-47cf-9e5c-f623feb7af6b",
    "atlas": "",
    "rect": [
      1,
      1,
      268,
      392
    ],
    "offset": [
      0,
      0
    ],
    "originalSize": [
      270,
      394
    ],
    "capInsets": [
      0,
      0,
      0,
      0
    ]
  }
}